…
ℹ Use `spec()` to retrieve the full column specification for this data.
ℹ Specify the column types or set `show_col_types = FALSE` to quiet this message.
> clean
Error: object 'clean' not found
> clean_unemp(unemp_2013,)
# A tibble: 118 × 2
    year commune                  
   <dbl> <chr>                    
 1  2013 Grand-Duche de Luxembourg
 2  2013 Canton Capellen          
 3  2013 Dippach                  
 4  2013 Garnich                  
 5  2013 Hobscheid                
 6  2013 Kaerjeng                 
 7  2013 Kehlen                   
 8  2013 Koerich                  
 9  2013 Kopstal                  
10  2013 Mamer                    
# ℹ 108 more rows
# ℹ Use `print(n = ...)` to see more rows
…
